name;age;gender;postCode
Jemmy Latus;71;Female;36579
Jacqueline Massard;69;Male;11555
Esmaria Ibell;76;Female;81120
Gabbie Purveys;84;Male;14051
Carol-jean Gavozzi;45;Male;83042
Riley Fettis;64;Female;70664
Sergent Sterrie;79;Female;97667
Baxie Guitt;23;Male;22393
Carlynn Pentin;26;Female;21354
Janela Keeting;31;Female;58238
